^C:\USERS\SVARS\DOCUMENTS\PROJECT NO CPP\HOMEWRK16\HOMEWRK16.CPP
C:\WINDOWS\GLOBALIZATION\SORTING\SORTDEFAULT.NLS
E:\VISUALSTUDIA\VC\TOOLS\MSVC\14.36.32532\BIN\HOSTX64\X64\1049\CLUI.DLL
C:\WINDOWS\SYSTEM32\TZRES.DLL
E:\VISUALSTUDIA\VC\TOOLS\MSVC\14.36.32532\INCLUDE\IOSTREAM
E:\VISUALSTUDIA\VC\TOOLS\MSVC\14.36.32532\INCLUDE\YVALS_CORE.H
E:\VISUALSTUDIA\VC\TOOLS\MSVC\14.36.32532\INCLUDE\VCRUNTIME.H
E:\VISUALSTUDIA\VC\TOOLS\MSVC\14.36.32532\INCLUDE\SAL.H
E:\VISUALSTUDIA\VC\TOOLS\MSVC\14.36.32532\INCLUDE\CONCURRENCYSAL.H
E:\VISUALSTUDIA\VC\TOOLS\MSVC\14.36.32532\INCLUDE\VADEFS.H
E:\VISUALSTUDIA\VC\TOOLS\MSVC\14.36.32532\INCLUDE\XKEYCHECK.H
E:\VISUALSTUDIA\VC\TOOLS\MSVC\14.36.32532\INCLUDE\ISTREAM
E:\VISUALSTUDIA\VC\TOOLS\MSVC\14.36.32532\INCLUDE\OSTREAM
E:\VISUALSTUDIA\VC\TOOLS\MSVC\14.36.32532\INCLUDE\IOS
E:\VISUALSTUDIA\VC\TOOLS\MSVC\14.36.32532\INCLUDE\XLOCNUM
E:\VISUALSTUDIA\VC\TOOLS\MSVC\14.36.32532\INCLUDE\CLIMITS
E:\VISUALSTUDIA\VC\TOOLS\MSVC\14.36.32532\INCLUDE\LIMITS.H
E:\VISUALSTUDIA\VC\TOOLS\MSVC\14.36.32532\INCLUDE\CMATH
E:\VISUALSTUDIA\VC\TOOLS\MSVC\14.36.32532\INCLUDE\YVALS.H
C:\PROGRAM FILES (X86)\WINDOWS KITS\10\INCLUDE\10.0.22000.0\UCRT\CRTDBG.H
C:\PROGRAM FILES (X86)\WINDOWS KITS\10\INCLUDE\10.0.22000.0\UCRT\CORECRT.H
E:\VISUALSTUDIA\VC\TOOLS\MSVC\14.36.32532\INCLUDE\VCRUNTIME_NEW_DEBUG.H
E:\VISUALSTUDIA\VC\TOOLS\MSVC\14.36.32532\INCLUDE\VCRUNTIME_NEW.H
E:\VISUALSTUDIA\VC\TOOLS\MSVC\14.36.32532\INCLUDE\CRTDEFS.H
E:\VISUALSTUDIA\VC\TOOLS\MSVC\14.36.32532\INCLUDE\USE_ANSI.H
E:\VISUALSTUDIA\VC\TOOLS\MSVC\14.36.32532\INCLUDE\CSTDLIB
C:\PROGRAM FILES (X86)\WINDOWS KITS\10\INCLUDE\10.0.22000.0\UCRT\MATH.H
C:\PROGRAM FILES (X86)\WINDOWS KITS\10\INCLUDE\10.0.22000.0\UCRT\CORECRT_MATH.H
C:\PROGRAM FILES (X86)\WINDOWS KITS\10\INCLUDE\10.0.22000.0\UCRT\STDLIB.H
C:\PROGRAM FILES (X86)\WINDOWS KITS\10\INCLUDE\10.0.22000.0\UCRT\CORECRT_MALLOC.H
C:\PROGRAM FILES (X86)\WINDOWS KITS\10\INCLUDE\10.0.22000.0\UCRT\CORECRT_SEARCH.H
C:\PROGRAM FILES (X86)\WINDOWS KITS\10\INCLUDE\10.0.22000.0\UCRT\STDDEF.H
C:\PROGRAM FILES (X86)\WINDOWS KITS\10\INCLUDE\10.0.22000.0\UCRT\CORECRT_WSTDLIB.H
E:\VISUALSTUDIA\VC\TOOLS\MSVC\14.36.32532\INCLUDE\XTR1COMMON
E:\VISUALSTUDIA\VC\TOOLS\MSVC\14.36.32532\INCLUDE\INTRIN0.H
E:\VISUALSTUDIA\VC\TOOLS\MSVC\14.36.32532\INCLUDE\INTRIN0.INL.H
E:\VISUALSTUDIA\VC\TOOLS\MSVC\14.36.32532\INCLUDE\CSTDIO
C:\PROGRAM FILES (X86)\WINDOWS KITS\10\INCLUDE\10.0.22000.0\UCRT\STDIO.H
C:\PROGRAM FILES (X86)\WINDOWS KITS\10\INCLUDE\10.0.22000.0\UCRT\CORECRT_WSTDIO.H
C:\PROGRAM FILES (X86)\WINDOWS KITS\10\INCLUDE\10.0.22000.0\UCRT\CORECRT_STDIO_CONFIG.H
E:\VISUALSTUDIA\VC\TOOLS\MSVC\14.36.32532\INCLUDE\ITERATOR
E:\VISUALSTUDIA\VC\TOOLS\MSVC\14.36.32532\INCLUDE\IOSFWD
E:\VISUALSTUDIA\VC\TOOLS\MSVC\14.36.32532\INCLUDE\CSTRING
C:\PROGRAM FILES (X86)\WINDOWS KITS\10\INCLUDE\10.0.22000.0\UCRT\STRING.H
C:\PROGRAM FILES (X86)\WINDOWS KITS\10\INCLUDE\10.0.22000.0\UCRT\CORECRT_MEMORY.H
C:\PROGRAM FILES (X86)\WINDOWS KITS\10\INCLUDE\10.0.22000.0\UCRT\CORECRT_MEMCPY_S.H
C:\PROGRAM FILES (X86)\WINDOWS KITS\10\INCLUDE\10.0.22000.0\UCRT\ERRNO.H
E:\VISUALSTUDIA\VC\TOOLS\MSVC\14.36.32532\INCLUDE\VCRUNTIME_STRING.H
C:\PROGRAM FILES (X86)\WINDOWS KITS\10\INCLUDE\10.0.22000.0\UCRT\CORECRT_WSTRING.H
E:\VISUALSTUDIA\VC\TOOLS\MSVC\14.36.32532\INCLUDE\CWCHAR
C:\PROGRAM FILES (X86)\WINDOWS KITS\10\INCLUDE\10.0.22000.0\UCRT\WCHAR.H
C:\PROGRAM FILES (X86)\WINDOWS KITS\10\INCLUDE\10.0.22000.0\UCRT\CORECRT_WCONIO.H
C:\PROGRAM FILES (X86)\WINDOWS KITS\10\INCLUDE\10.0.22000.0\UCRT\CORECRT_WCTYPE.H
C:\PROGRAM FILES (X86)\WINDOWS KITS\10\INCLUDE\10.0.22000.0\UCRT\CORECRT_WDIRECT.H
C:\PROGRAM FILES (X86)\WINDOWS KITS\10\INCLUDE\10.0.22000.0\UCRT\CORECRT_WIO.H
C:\PROGRAM FILES (X86)\WINDOWS KITS\10\INCLUDE\10.0.22000.0\UCRT\CORECRT_SHARE.H
C:\PROGRAM FILES (X86)\WINDOWS KITS\10\INCLUDE\10.0.22000.0\UCRT\CORECRT_WPROCESS.H
C:\PROGRAM FILES (X86)\WINDOWS KITS\10\INCLUDE\10.0.22000.0\UCRT\CORECRT_WTIME.H
C:\PROGRAM FILES (X86)\WINDOWS KITS\10\INCLUDE\10.0.22000.0\UCRT\SYS\STAT.H
C:\PROGRAM FILES (X86)\WINDOWS KITS\10\INCLUDE\10.0.22000.0\UCRT\SYS\TYPES.H
E:\VISUALSTUDIA\VC\TOOLS\MSVC\14.36.32532\INCLUDE\XSTDDEF
E:\VISUALSTUDIA\VC\TOOLS\MSVC\14.36.32532\INCLUDE\CSTDDEF
E:\VISUALSTUDIA\VC\TOOLS\MSVC\14.36.32532\INCLUDE\INITIALIZER_LIST
E:\VISUALSTUDIA\VC\TOOLS\MSVC\14.36.32532\INCLUDE\XUTILITY
E:\VISUALSTUDIA\VC\TOOLS\MSVC\14.36.32532\INCLUDE\__MSVC_ITER_CORE.HPP
E:\VISUALSTUDIA\VC\TOOLS\MSVC\14.36.32532\INCLUDE\UTILITY
E:\VISUALSTUDIA\VC\TOOLS\MSVC\14.36.32532\INCLUDE\TYPE_TRAITS
E:\VISUALSTUDIA\VC\TOOLS\MSVC\14.36.32532\INCLUDE\CSTDINT
E:\VISUALSTUDIA\VC\TOOLS\MSVC\14.36.32532\INCLUDE\STDINT.H
E:\VISUALSTUDIA\VC\TOOLS\MSVC\14.36.32532\INCLUDE\STREAMBUF
E:\VISUALSTUDIA\VC\TOOLS\MSVC\14.36.32532\INCLUDE\XIOSBASE
C:\PROGRAM FILES (X86)\WINDOWS KITS\10\INCLUDE\10.0.22000.0\UCRT\SHARE.H
E:\VISUALSTUDIA\VC\TOOLS\MSVC\14.36.32532\INCLUDE\SYSTEM_ERROR
E:\VISUALSTUDIA\VC\TOOLS\MSVC\14.36.32532\INCLUDE\__MSVC_SYSTEM_ERROR_ABI.HPP
E:\VISUALSTUDIA\VC\TOOLS\MSVC\14.36.32532\INCLUDE\CERRNO
E:\VISUALSTUDIA\VC\TOOLS\MSVC\14.36.32532\INCLUDE\STDEXCEPT
E:\VISUALSTUDIA\VC\TOOLS\MSVC\14.36.32532\INCLUDE\EXCEPTION
C:\PROGRAM FILES (X86)\WINDOWS KITS\10\INCLUDE\10.0.22000.0\UCRT\MALLOC.H
E:\VISUALSTUDIA\VC\TOOLS\MSVC\14.36.32532\INCLUDE\VCRUNTIME_EXCEPTION.H
E:\VISUALSTUDIA\VC\TOOLS\MSVC\14.36.32532\INCLUDE\EH.H
C:\PROGRAM FILES (X86)\WINDOWS KITS\10\INCLUDE\10.0.22000.0\UCRT\CORECRT_TERMINATE.H
E:\VISUALSTUDIA\VC\TOOLS\MSVC\14.36.32532\INCLUDE\XSTRING
E:\VISUALSTUDIA\VC\TOOLS\MSVC\14.36.32532\INCLUDE\XMEMORY
E:\VISUALSTUDIA\VC\TOOLS\MSVC\14.36.32532\INCLUDE\LIMITS
E:\VISUALSTUDIA\VC\TOOLS\MSVC\14.36.32532\INCLUDE\CFLOAT
C:\PROGRAM FILES (X86)\WINDOWS KITS\10\INCLUDE\10.0.22000.0\UCRT\FLOAT.H
E:\VISUALSTUDIA\VC\TOOLS\MSVC\14.36.32532\INCLUDE\ISA_AVAILABILITY.H
E:\VISUALSTUDIA\VC\TOOLS\MSVC\14.36.32532\INCLUDE\NEW
E:\VISUALSTUDIA\VC\TOOLS\MSVC\14.36.32532\INCLUDE\XATOMIC.H
E:\VISUALSTUDIA\VC\TOOLS\MSVC\14.36.32532\INCLUDE\__MSVC_SANITIZER_ANNOTATE_CONTAINER.HPP
E:\VISUALSTUDIA\VC\TOOLS\MSVC\14.36.32532\INCLUDE\XCALL_ONCE.H
E:\VISUALSTUDIA\VC\TOOLS\MSVC\14.36.32532\INCLUDE\XERRC.H
E:\VISUALSTUDIA\VC\TOOLS\MSVC\14.36.32532\INCLUDE\ATOMIC
E:\VISUALSTUDIA\VC\TOOLS\MSVC\14.36.32532\INCLUDE\XTHREADS.H
E:\VISUALSTUDIA\VC\TOOLS\MSVC\14.36.32532\INCLUDE\XTIMEC.H
E:\VISUALSTUDIA\VC\TOOLS\MSVC\14.36.32532\INCLUDE\CTIME
C:\PROGRAM FILES (X86)\WINDOWS KITS\10\INCLUDE\10.0.22000.0\UCRT\TIME.H
E:\VISUALSTUDIA\VC\TOOLS\MSVC\14.36.32532\INCLUDE\XLOCALE
E:\VISUALSTUDIA\VC\TOOLS\MSVC\14.36.32532\INCLUDE\MEMORY
E:\VISUALSTUDIA\VC\TOOLS\MSVC\14.36.32532\INCLUDE\TYPEINFO
E:\VISUALSTUDIA\VC\TOOLS\MSVC\14.36.32532\INCLUDE\VCRUNTIME_TYPEINFO.H
E:\VISUALSTUDIA\VC\TOOLS\MSVC\14.36.32532\INCLUDE\XFACET
E:\VISUALSTUDIA\VC\TOOLS\MSVC\14.36.32532\INCLUDE\XLOCINFO
E:\VISUALSTUDIA\VC\TOOLS\MSVC\14.36.32532\INCLUDE\__MSVC_XLOCINFO_TYPES.HPP
E:\VISUALSTUDIA\VC\TOOLS\MSVC\14.36.32532\INCLUDE\CCTYPE
C:\PROGRAM FILES (X86)\WINDOWS KITS\10\INCLUDE\10.0.22000.0\UCRT\CTYPE.H
E:\VISUALSTUDIA\VC\TOOLS\MSVC\14.36.32532\INCLUDE\CLOCALE
C:\PROGRAM FILES (X86)\WINDOWS KITS\10\INCLUDE\10.0.22000.0\UCRT\LOCALE.H
