^C:\USERS\SVARS\DOCUMENTS\PROJECT NO CPP\HOMEWRK16\HOMEWRK16.CPP
C:\USERS\SVARS\DOCUMENTS\PROJECT NO CPP\HOMEWRK16\X64\DEBUG\VC143.PDB
C:\USERS\SVARS\DOCUMENTS\PROJECT NO CPP\HOMEWRK16\X64\DEBUG\VC143.IDB
C:\USERS\SVARS\DOCUMENTS\PROJECT NO CPP\HOMEWRK16\X64\DEBUG\HOMEWRK16.OBJ
